%YAML 1.1
%TAG !u! tag:unity3d.com,2011:
--- !u!114 &11400000
MonoBehaviour:
  m_ObjectHideFlags: 0
  m_CorrespondingSourceObject: {fileID: 0}
  m_PrefabInstance: {fileID: 0}
  m_PrefabAsset: {fileID: 0}
  m_GameObject: {fileID: 0}
  m_Enabled: 1
  m_EditorHideFlags: 0
  m_Script: {fileID: 11500000, guid: 56bd3f0867234a6faa2ad55df7300564, type: 3}
  m_Name: DefaultCreatureAiDefinition
  m_EditorClassIdentifier: 
  chaseRadius: 10
  chaseThreshold: 20
  roamRadius: 10
  roamIdleTimeMin: 2
  roamIdleTimeMax: 4
