%YAML 1.1
%TAG !u! tag:unity3d.com,2011:
--- !u!114 &11400000
MonoBehaviour:
  m_ObjectHideFlags: 0
  m_CorrespondingSourceObject: {fileID: 0}
  m_PrefabInstance: {fileID: 0}
  m_PrefabAsset: {fileID: 0}
  m_GameObject: {fileID: 0}
  m_Enabled: 1
  m_EditorHideFlags: 0
  m_Script: {fileID: 11500000, guid: 9c2e7f72a12648f6865da7e6dcb83392, type: 3}
  m_Name: Sword
  m_EditorClassIdentifier: 
  model:
    weaponClass: 0
    attackDice:
      numberOfDice: 2
      diceValue: 4
      modifier: 1
  animationClip: {fileID: 7400000, guid: 07b3d7fdd3721f14f86aef7f2bbacc5b, type: 2}
  icon: {fileID: -7628003106353308246, guid: 691966f174f292349bc168d8ce20a0ea, type: 3}
